info face="C:\Users\HuyenNT\Desktop\fefe" size=32 bold=0 italic=0 charset="" unicode=0 stretchH=100 smooth=1 aa=1 padding=0,0,0,0 spacing=1,1
common lineHeight=80 base=26 scaleW=256 scaleH=256 pages=1 packed=0 alphaChnl=1 redChnl=0 greenChnl=0 blueChnl=0
page id=0 file="C:\Users\HuyenNT\Desktop\fefe.png"
chars count=96
char id=33 x=164 y=51 width=10 height=26 xoffset=0 yoffset=55 xadvance=11 page=0 chnl=0 letter="!"
char id=34 x=110 y=159 width=12 height=11 xoffset=0 yoffset=54 xadvance=13 page=0 chnl=0 letter="""
char id=35 x=0 y=166 width=24 height=22 xoffset=0 yoffset=57 xadvance=25 page=0 chnl=0 letter="#"
char id=36 x=70 y=80 width=19 height=29 xoffset=0 yoffset=53 xadvance=20 page=0 chnl=0 letter="$"
char id=37 x=27 y=114 width=21 height=26 xoffset=0 yoffset=55 xadvance=22 page=0 chnl=0 letter="%"
char id=38 x=26 y=141 width=21 height=22 xoffset=0 yoffset=57 xadvance=22 page=0 chnl=0 letter="&"
char id=39 x=110 y=171 width=7 height=11 xoffset=0 yoffset=52 xadvance=8 page=0 chnl=0 letter="'"
char id=40 x=176 y=33 width=8 height=32 xoffset=0 yoffset=52 xadvance=9 page=0 chnl=0 letter="("
char id=41 x=176 y=0 width=8 height=32 xoffset=0 yoffset=52 xadvance=9 page=0 chnl=0 letter=")"
char id=42 x=23 y=242 width=14 height=13 xoffset=0 yoffset=55 xadvance=15 page=0 chnl=0 letter="*"
char id=43 x=93 y=0 width=15 height=15 xoffset=0 yoffset=62 xadvance=16 page=0 chnl=0 letter="+"
char id=44 x=48 y=245 width=8 height=9 xoffset=0 yoffset=74 xadvance=9 page=0 chnl=0 letter=","
char id=45 x=38 y=245 width=9 height=7 xoffset=0 yoffset=65 xadvance=10 page=0 chnl=0 letter="-"
char id=46 x=66 y=245 width=8 height=8 xoffset=0 yoffset=73 xadvance=9 page=0 chnl=0 letter="."
char id=47 x=0 y=189 width=24 height=25 xoffset=0 yoffset=56 xadvance=25 page=0 chnl=0 letter="/"
char id=48 x=0 y=215 width=22 height=27 xoffset=0 yoffset=54 xadvance=23 page=0 chnl=0 letter="0"
char id=49 x=164 y=26 width=11 height=24 xoffset=0 yoffset=56 xadvance=12 page=0 chnl=0 letter="1"
char id=50 x=69 y=165 width=20 height=26 xoffset=0 yoffset=55 xadvance=21 page=0 chnl=0 letter="2"
char id=51 x=71 y=26 width=19 height=25 xoffset=0 yoffset=56 xadvance=20 page=0 chnl=0 letter="3"
char id=52 x=73 y=0 width=19 height=24 xoffset=0 yoffset=56 xadvance=20 page=0 chnl=0 letter="4"
char id=53 x=127 y=159 width=18 height=25 xoffset=0 yoffset=55 xadvance=19 page=0 chnl=0 letter="5"
char id=54 x=90 y=78 width=19 height=25 xoffset=0 yoffset=56 xadvance=20 page=0 chnl=0 letter="6"
char id=55 x=146 y=184 width=17 height=25 xoffset=0 yoffset=55 xadvance=18 page=0 chnl=0 letter="7"
char id=56 x=27 y=87 width=21 height=26 xoffset=0 yoffset=55 xadvance=22 page=0 chnl=0 letter="8"
char id=57 x=67 y=193 width=20 height=25 xoffset=0 yoffset=56 xadvance=21 page=0 chnl=0 letter="9"
char id=58 x=121 y=237 width=8 height=16 xoffset=0 yoffset=60 xadvance=9 page=0 chnl=0 letter=":"
char id=59 x=146 y=236 width=9 height=19 xoffset=0 yoffset=63 xadvance=10 page=0 chnl=0 letter=";"
char id=60 x=111 y=26 width=11 height=13 xoffset=0 yoffset=67 xadvance=12 page=0 chnl=0 letter="<"
char id=61 x=25 y=193 width=15 height=14 xoffset=0 yoffset=62 xadvance=16 page=0 chnl=0 letter="="
char id=62 x=108 y=237 width=12 height=13 xoffset=0 yoffset=67 xadvance=13 page=0 chnl=0 letter=">"
char id=63 x=163 y=210 width=14 height=27 xoffset=0 yoffset=54 xadvance=15 page=0 chnl=0 letter="?"
char id=64 x=0 y=0 width=30 height=29 xoffset=0 yoffset=52 xadvance=31 page=0 chnl=0 letter="@"
char id=65 x=52 y=0 width=20 height=25 xoffset=0 yoffset=55 xadvance=21 page=0 chnl=0 letter="A"
char id=66 x=108 y=183 width=18 height=25 xoffset=0 yoffset=55 xadvance=19 page=0 chnl=0 letter="B"
char id=67 x=147 y=54 width=16 height=25 xoffset=0 yoffset=55 xadvance=17 page=0 chnl=0 letter="C"
char id=68 x=130 y=0 width=18 height=25 xoffset=0 yoffset=55 xadvance=19 page=0 chnl=0 letter="D"
char id=69 x=146 y=210 width=16 height=25 xoffset=0 yoffset=55 xadvance=17 page=0 chnl=0 letter="E"
char id=70 x=147 y=80 width=15 height=25 xoffset=0 yoffset=55 xadvance=16 page=0 chnl=0 letter="F"
char id=71 x=23 y=215 width=22 height=26 xoffset=0 yoffset=55 xadvance=23 page=0 chnl=0 letter="G"
char id=72 x=127 y=185 width=18 height=25 xoffset=0 yoffset=55 xadvance=19 page=0 chnl=0 letter="H"
char id=73 x=177 y=170 width=7 height=25 xoffset=0 yoffset=55 xadvance=8 page=0 chnl=0 letter="I"
char id=74 x=147 y=106 width=15 height=25 xoffset=0 yoffset=55 xadvance=16 page=0 chnl=0 letter="J"
char id=75 x=90 y=130 width=19 height=25 xoffset=0 yoffset=55 xadvance=20 page=0 chnl=0 letter="K"
char id=76 x=163 y=106 width=14 height=25 xoffset=0 yoffset=55 xadvance=15 page=0 chnl=0 letter="L"
char id=77 x=0 y=60 width=26 height=26 xoffset=0 yoffset=55 xadvance=27 page=0 chnl=0 letter="M"
char id=78 x=110 y=104 width=18 height=27 xoffset=0 yoffset=54 xadvance=19 page=0 chnl=0 letter="N"
char id=79 x=49 y=111 width=20 height=25 xoffset=0 yoffset=55 xadvance=21 page=0 chnl=0 letter="O"
char id=80 x=146 y=158 width=17 height=25 xoffset=0 yoffset=55 xadvance=18 page=0 chnl=0 letter="P"
char id=81 x=27 y=60 width=21 height=26 xoffset=0 yoffset=55 xadvance=22 page=0 chnl=0 letter="Q"
char id=82 x=110 y=51 width=18 height=26 xoffset=0 yoffset=55 xadvance=19 page=0 chnl=0 letter="R"
char id=83 x=67 y=219 width=20 height=25 xoffset=0 yoffset=55 xadvance=21 page=0 chnl=0 letter="S"
char id=84 x=90 y=156 width=19 height=26 xoffset=0 yoffset=55 xadvance=20 page=0 chnl=0 letter="T"
char id=85 x=70 y=110 width=19 height=25 xoffset=0 yoffset=55 xadvance=20 page=0 chnl=0 letter="U"
char id=86 x=110 y=78 width=18 height=25 xoffset=0 yoffset=55 xadvance=19 page=0 chnl=0 letter="V"
char id=87 x=0 y=87 width=26 height=25 xoffset=0 yoffset=55 xadvance=27 page=0 chnl=0 letter="W"
char id=88 x=69 y=137 width=20 height=27 xoffset=0 yoffset=54 xadvance=21 page=0 chnl=0 letter="X"
char id=89 x=90 y=52 width=19 height=25 xoffset=0 yoffset=55 xadvance=20 page=0 chnl=0 letter="Y"
char id=90 x=50 y=28 width=20 height=25 xoffset=0 yoffset=55 xadvance=21 page=0 chnl=0 letter="Z"
char id=91 x=164 y=132 width=13 height=37 xoffset=0 yoffset=50 xadvance=14 page=0 chnl=0 letter="["
char id=92 x=88 y=192 width=19 height=31 xoffset=0 yoffset=50 xadvance=20 page=0 chnl=0 letter="\"
char id=93 x=164 y=170 width=12 height=35 xoffset=0 yoffset=51 xadvance=13 page=0 chnl=0 letter="]"
char id=94 x=0 y=30 width=27 height=29 xoffset=0 yoffset=52 xadvance=28 page=0 chnl=0 letter="^"
char id=95 x=0 y=245 width=18 height=5 xoffset=0 yoffset=79 xadvance=19 page=0 chnl=0 letter="_"
char id=96 x=57 y=245 width=8 height=9 xoffset=0 yoffset=54 xadvance=9 page=0 chnl=0 letter="`"
char id=97 x=49 y=85 width=20 height=25 xoffset=0 yoffset=55 xadvance=21 page=0 chnl=0 letter="a"
char id=98 x=108 y=209 width=18 height=25 xoffset=0 yoffset=55 xadvance=19 page=0 chnl=0 letter="b"
char id=99 x=129 y=106 width=17 height=25 xoffset=0 yoffset=55 xadvance=18 page=0 chnl=0 letter="c"
char id=100 x=127 y=211 width=18 height=25 xoffset=0 yoffset=55 xadvance=19 page=0 chnl=0 letter="d"
char id=101 x=147 y=132 width=15 height=25 xoffset=0 yoffset=55 xadvance=16 page=0 chnl=0 letter="e"
char id=102 x=149 y=0 width=15 height=25 xoffset=0 yoffset=55 xadvance=16 page=0 chnl=0 letter="f"
char id=103 x=25 y=166 width=22 height=26 xoffset=0 yoffset=55 xadvance=23 page=0 chnl=0 letter="g"
char id=104 x=111 y=0 width=18 height=25 xoffset=0 yoffset=55 xadvance=19 page=0 chnl=0 letter="h"
char id=105 x=165 y=0 width=8 height=25 xoffset=0 yoffset=55 xadvance=9 page=0 chnl=0 letter="i"
char id=106 x=148 y=26 width=15 height=25 xoffset=0 yoffset=55 xadvance=16 page=0 chnl=0 letter="j"
char id=107 x=70 y=54 width=19 height=25 xoffset=0 yoffset=55 xadvance=20 page=0 chnl=0 letter="k"
char id=108 x=163 y=80 width=14 height=25 xoffset=0 yoffset=55 xadvance=15 page=0 chnl=0 letter="l"
char id=109 x=0 y=113 width=26 height=26 xoffset=0 yoffset=55 xadvance=27 page=0 chnl=0 letter="m"
char id=110 x=129 y=26 width=18 height=27 xoffset=0 yoffset=54 xadvance=19 page=0 chnl=0 letter="n"
char id=111 x=46 y=219 width=20 height=25 xoffset=0 yoffset=55 xadvance=21 page=0 chnl=0 letter="o"
char id=112 x=129 y=80 width=17 height=25 xoffset=0 yoffset=55 xadvance=18 page=0 chnl=0 letter="p"
char id=113 x=28 y=30 width=21 height=26 xoffset=0 yoffset=55 xadvance=22 page=0 chnl=0 letter="q"
char id=114 x=88 y=224 width=19 height=26 xoffset=0 yoffset=55 xadvance=20 page=0 chnl=0 letter="r"
char id=115 x=91 y=25 width=19 height=25 xoffset=0 yoffset=55 xadvance=20 page=0 chnl=0 letter="s"
char id=116 x=110 y=132 width=18 height=26 xoffset=0 yoffset=55 xadvance=19 page=0 chnl=0 letter="t"
char id=117 x=48 y=167 width=20 height=25 xoffset=0 yoffset=55 xadvance=21 page=0 chnl=0 letter="u"
char id=118 x=90 y=104 width=19 height=25 xoffset=0 yoffset=55 xadvance=20 page=0 chnl=0 letter="v"
char id=119 x=0 y=140 width=25 height=25 xoffset=0 yoffset=55 xadvance=26 page=0 chnl=0 letter="w"
char id=120 x=31 y=0 width=20 height=27 xoffset=0 yoffset=54 xadvance=21 page=0 chnl=0 letter="x"
char id=121 x=48 y=141 width=20 height=25 xoffset=0 yoffset=55 xadvance=21 page=0 chnl=0 letter="y"
char id=122 x=46 y=193 width=20 height=25 xoffset=0 yoffset=55 xadvance=21 page=0 chnl=0 letter="z"
char id=123 x=129 y=132 width=17 height=25 xoffset=0 yoffset=55 xadvance=18 page=0 chnl=0 letter="{"
char id=124 x=123 y=26 width=2 height=24 xoffset=0 yoffset=62 xadvance=3 page=0 chnl=0 letter="|"
char id=125 x=129 y=54 width=17 height=25 xoffset=0 yoffset=55 xadvance=18 page=0 chnl=0 letter="}"
char id=126 x=49 y=57 width=20 height=27 xoffset=0 yoffset=54 xadvance=21 page=0 chnl=0 letter="~"
char id=32 x=0 y=0 width=0 height=0 xoffset=0 yoffset=0 xadvance=20 page=0 chnl=0 letter=" "
char id=9 x=0 y=0 width=0 height=0 xoffset=0 yoffset=0 xadvance=160 page=0 chnl=0 letter="	"

kernings count=0
